<?xml version="1.0" encoding="utf-8"?>
<!-- Generator: Adobe Illustrator 16.0.0, SVG Export Plug-In . SVG Version: 6.00 Build 0)  -->
<!DOCTYPE svg PUBLIC "-//W3C//DTD SVG 1.1//EN" "http://www.w3.org/Graphics/SVG/1.1/DTD/svg11.dtd">
<svg version="1.1" id="Layer_1" xmlns="http://www.w3.org/2000/svg" xmlns:xlink="http://www.w3.org/1999/xlink" x="0px" y="0px"
	 width="480.8px" height="377.7px" viewBox="0 0 480.8 377.7" enable-background="new 0 0 480.8 377.7" xml:space="preserve">
<path fill-rule="evenodd" clip-rule="evenodd" d="M19.9,190.3c-2.2-0.9-1.9-3.8-2.3-6.2c-1.7-10.5-3.4-21-5.1-31.6
	c-0.7-4.4-1.4-8.9-2.2-13.3c-0.4-2.3-0.8-4.5,2.5-6.3c-4.4-0.5-4.3-3.5-4.8-6.2c-2.6-16.8-5.3-33.6-8-50.4c-0.3-1.7,0.1-2.4,1.8-2.8
	c1.9-0.5,3.7-1.3,5.4-2.2c0.6-0.3,1.2-1.3,1.2-2c0-2,1-2.8,2.7-3.3c4.6-1.6,9.1-3.3,13.7-4.9c1.2-0.4,2.2-0.8,3.2,0.7
	c0.3,0.5,1.9,0.5,2.7,0.2c8-3.1,15.8-6.4,23.8-9.5c16-6.4,32.1-12.7,48.2-19.1c18.4-7.4,36.7-14.9,55.1-22.3
	c2.2-0.9,4.5-1.7,6.7-2.5c1.7-0.6,3.3-1.2,3.6-3.4c0.1-0.6,1.2-1.2,1.9-1.5c3-1.2,6.1-2.4,9.2-3.4c1.1-0.4,2.4-0.5,3.6-0.3
	c2.9,0.4,5.7,1.1,8.6,1.7c1.9,0.4,4,0.5,4.6,3.1c0.2,0.7,1.9,1.2,2.9,1.4c13.9,2.8,27.8,5.5,41.7,8.3c10.9,2.2,21.8,4.5,32.6,6.7
	c16.4,3.3,32.8,6.6,49.2,9.9c16.6,3.3,33.1,6.8,49.7,10.1c19.4,3.9,38.9,7.7,58.3,11.5c5.7,1.1,11.4,2.4,17.1,3.5
	c1.6,0.3,3.3,1,4.1-1.5c0.1-0.5,1.5-0.9,2.2-0.8c5.9,1.1,11.8,2.3,17.6,3.6c0.6,0.1,1.5,1.1,1.5,1.7c-0.1,2.1,1.1,2.7,2.8,3.1
	c5.3,1.3,5.2,1.3,4.7,6.6c-1.3,15.2-2.5,30.4-3.9,45.5c-0.3,2.9,0.5,6.3-1.8,8.2c0.5,1.5,1.2,2.6,1.1,3.7c-0.6,8.3-1.4,16.5-2,24.7
	c-0.7,7.9-1.3,15.8-2,23.7c-0.1,1.5-0.7,3-1.1,4.5c-0.1,0.4-0.4,0.8-0.4,1.2c-0.4,7.1-0.7,14.2-1.2,21.2c-0.7,8.9-1.6,17.9-2.4,26.8
	c-0.2,2.3,0,4.8-0.8,6.8c-1,2.5-2.7,4.9-4.6,6.9c-6.2,6.8-12.6,13.3-18.8,20c-1.5,1.7-3,2.2-5,1.3c-0.2,0.4-0.5,0.6-0.5,0.8
	c0.7,4.5-2.2,7.1-5,9.9c-7.4,7.4-14.8,14.9-22.3,22.2c-1.1,1.1-2.8,1.7-4.9,2.9c0.1,3.5-3,6.1-5.8,9c-8.4,8.5-16.8,17.1-25.1,25.8
	c-1.1,1.2-2.2,1.9-3.9,1.3c-1.7-0.6-2.5,0.5-2.3,1.9c0.5,3.3-1.4,5.4-3.5,7.5c-9,9.1-17.9,18.2-26.8,27.4c-1.3,1.3-2.6,2.6-3.7,4.1
	c-1.4,1.9-2.9,1.8-4.9,1c-9.9-4.3-19.9-8.6-29.9-12.8c-16-6.9-32.1-13.7-48.1-20.6c-15-6.4-29.9-12.9-44.9-19.3
	c-11.7-5-23.4-9.8-35-14.8c-10.4-4.4-20.7-9-31-13.5c-12.8-5.5-25.6-10.9-38.4-16.4c-17.2-7.4-34.3-14.8-51.5-22.1
	c-6.5-2.8-13-5.5-19.5-8.1c-1.9-0.7-2.8-1.9-3.1-3.8c-2.1-13.3-4.2-26.6-6.4-39.9c-0.5-3.3-1.2-6.6-1.6-9.9
	C19.3,194.3,19.7,192.6,19.9,190.3z M121.6,54.5c-0.6-1.3-0.9-2.9-1.8-3.8c-0.4-0.4-2.4,0.5-3.3,1.2c-7.7,5.4-16,9.5-25.4,11.3
	c-2.8,0.5-4.4,2.5-4.8,5.1c-0.3,2-0.5,4.7,0.5,6.2c0.7,1,3.7,0.9,5.5,0.5c8.8-1.7,16.4-6.2,23.7-11.2
	C119.1,61.6,121.2,58.6,121.6,54.5z"/>
</svg>
